Linear solve converged due to CONVERGED_RTOL iterations 8
Linear solve converged due to CONVERGED_RTOL iterations 8
Linear solve converged due to CONVERGED_RTOL iterations 8
[0]main |b-Ax|/|b|=1.109568e-04, |b|=4.969822e+00, emax=9.930238e-01
